Prace se seznamy - permutace
-------------------------------

perm1 napsany pomoci insert
Vysledek volani perm1(LinkedList([1, 2, 3])): 
	[[1, 2, 3], [2, 1, 3], [2, 3, 1], [1, 3, 2], [3, 1, 2], [3, 2, 1]]

perm2 napsany pomoci del1_anyX
Vysledek volani perm2(LinkedList([1, 2, 3])): 
	[[1, 2, 3], [1, 3, 2], [2, 1, 3], [2, 3, 1], [3, 1, 2], [3, 2, 1]]

perm3 napsany pomoci pruchodu seznamem
Vysledek volani perm3(LinkedList([1, 2, 3])): 
	[[1, 2, 3], [1, 3, 2], [2, 1, 3], [2, 3, 1], [3, 1, 2], [3, 2, 1]]

