Binarni stromy
--------------

Vytvoreni stromu:
T = next(add(nil, 6)); T1 = next(add(T, 8)); T2 = next(add(T1, 2)); T3 = next(add(T2, 4)); T4 = next(add(T3, 1)); show(T4) :
    8
      6
  4
    2
1

Smazani uzlu s hodnotou 8:
T5 = next(del_(T4, 8)); show(T5) :
    6
  4
    2
1

Smazani uzlu s hodnotou 2:
T6 = next(del_(T5, 2)); show(T6) :
    6
  4
1
