Cesta mezi mesty, algoritmus AND/OR A*

Zadani: ('direct', 'a', 'z')

Nalezene reseni:
Prohledano 69 stavu, vysledne reseni ma cenu 11.
('solved_tree', ('direct', 'a', 'z'), 11, ('or_result', ('solved_tree', ('direct', 'c', 'z'), 11, ('or_result', ('solved_tree', ('via', 'c', 'z', 'l'), 8, ('and_result', [('solved_tree', ('direct', 'l', 'z'), 6, ('or_result', ('solved_tree', ('direct', 'u', 'z'), 6, ('or_result', ('solved_tree', ('direct', 'y', 'z'), 5, ('or_result', ('solved_leaf', ('direct', 'z', 'z'), 3))))))), ('solved_tree', ('direct', 'c', 'l'), 2, ('or_result', ('solved_leaf', ('direct', 'l', 'l'), 2)))]))))))
